{
  "warehouses": [
    {
      "title": "Jeff",
      "id": 3
    },
    {
      "title": "Alaska",
      "id": 26
    },
    {
      "title": "Ambrella",
      "id": 30
    },
    {
      "title": "Abram",
      "id": 41
    }
  ],
  "products": [
    {
      "title": "Microsoft",
      "quantity": 105,
      "id": 1
    },
    {
      "title": "Facebook2",
      "quantity": 210,
      "id": 2
    },
    {
      "title": "Amazon",
      "quantity": 3,
      "id": 3
    },
    {
      "title": "Azazello",
      "quantity": "100",
      "id": 4
    },
    {
      "title": "exxxx",
      "quantity": 4,
      "id": 13
    },
    {
      "title": "azazello",
      "quantity": 13,
      "id": 16
    },
    {
      "title": "Alalalalong",
      "quantity": 12,
      "id": 17
    },
    {
      "title": "2",
      "quantity": 323,
      "id": 33
    },
    {
      "title": "2",
      "quantity": 1,
      "id": 35
    },
    {
      "title": "3",
      "quantity": 5,
      "id": 38
    },
    {
      "title": "4",
      "quantity": 5,
      "id": 39
    },
    {
      "title": "7",
      "quantity": 57,
      "id": 43
    },
    {
      "title": "8",
      "quantity": 58,
      "id": 44
    },
    {
      "title": "10",
      "quantity": 8,
      "id": 46
    },
    {
      "title": "11",
      "quantity": 5,
      "id": 47
    },
    {
      "title": "12",
      "quantity": 5,
      "id": 48
    },
    {
      "title": "13",
      "quantity": 5,
      "id": 49
    },
    {
      "title": "14",
      "quantity": 5,
      "id": 50
    },
    {
      "title": "aa",
      "quantity": 333,
      "id": 51
    },
    {
      "title": "abrak",
      "quantity": 122,
      "id": 52
    },
    {
      "title": "xxxxxx",
      "quantity": 12,
      "id": 53
    },
    {
      "title": "12",
      "quantity": 0,
      "id": 54
    }
  ],
  "warehousesProducts": [
    {
      "warehouseId": 3,
      "productId": 4,
      "quantity": 1,
      "id": 2
    },
    {
      "warehouseId": 26,
      "productId": 13,
      "quantity": 1,
      "id": 3
    },
    {
      "warehouseId": 3,
      "productId": 3,
      "quantity": 1,
      "id": 13
    },
    {
      "warehouseId": 3,
      "productId": 2,
      "quantity": 1,
      "id": 15
    },
    {
      "warehouseId": 30,
      "productId": 13,
      "quantity": 1,
      "id": 16
    },
    {
      "warehouseId": 26,
      "productId": 4,
      "quantity": 1,
      "id": 17
    }
  ]
}